ply
format ascii 1.0
comment VCGLIB generated
element vertex 10
property float x
property float y
property float z
property uchar red
property uchar green
property uchar blue
property uchar alpha
element face 10
property list uchar int vertex_indices
end_header
83868.6 10171.3 -43459.2 149 149 149 255 
84908.6 8987.33 -46169.2 149 149 149 255 
83458.6 10351.3 -47619.2 149 149 149 255 
73598.6 9910.33 -60159.2 149 149 149 255 
68978.6 8787.33 -60829.2 149 149 149 255 
67108.6 10951.3 -58449.2 149 149 149 255 
72168.6 12231.3 -57289.2 149 149 149 255 
67848.6 18441.3 -49099.2 149 149 149 255 
67358.6 17621.3 -46629.2 149 149 149 255 
70858.6 16331.3 -46099.2 149 149 149 255 
3 1849 36977 18317 
3 18317 36980 1849 
3 9842 36978 18317 
3 18317 36977 9842 
3 4695 36979 18317 
3 18317 36978 4695 
3 9841 36980 18317 
3 18317 36979 9841 
3 1847 36974 18318 
3 18318 36982 1847 
