^C:\USERS\HEESU\CLOUDSTATION\HEESU\PROGRAMMING\OCTREE\160503_OCTREE_EX1\160503_OCTREE_EX1\BOUNDINGBOX.CPP
/c /ZI /nologo /W3 /WX- /Od /Oy- /D WIN32 /D _DEBUG /D _CONSOLE /D _UNICODE /D UNICODE /Gm /EHsc /RTC1 /MDd /GS /fp:precise /Zc:wchar_t /Zc:forScope /Fo"DEBUG\\" /Fd"DEBUG\VC110.PDB" /Gd /TP /analyze- C:\USERS\HEESU\CLOUDSTATION\HEESU\PROGRAMMING\OCTREE\160503_OCTREE_EX1\160503_OCTREE_EX1\BOUNDINGBOX.CPP
^C:\USERS\HEESU\CLOUDSTATION\HEESU\PROGRAMMING\OCTREE\160503_OCTREE_EX1\160503_OCTREE_EX1\MAIN.CPP
/c /ZI /nologo /W3 /WX- /Od /Oy- /D WIN32 /D _DEBUG /D _CONSOLE /D _UNICODE /D UNICODE /Gm /EHsc /RTC1 /MDd /GS /fp:precise /Zc:wchar_t /Zc:forScope /Fo"DEBUG\\" /Fd"DEBUG\VC110.PDB" /Gd /TP /analyze- C:\USERS\HEESU\CLOUDSTATION\HEESU\PROGRAMMING\OCTREE\160503_OCTREE_EX1\160503_OCTREE_EX1\MAIN.CPP
^C:\USERS\HEESU\CLOUDSTATION\HEESU\PROGRAMMING\OCTREE\160503_OCTREE_EX1\160503_OCTREE_EX1\MESH.CPP
/c /ZI /nologo /W3 /WX- /Od /Oy- /D WIN32 /D _DEBUG /D _CONSOLE /D _UNICODE /D UNICODE /Gm /EHsc /RTC1 /MDd /GS /fp:precise /Zc:wchar_t /Zc:forScope /Fo"DEBUG\\" /Fd"DEBUG\VC110.PDB" /Gd /TP /analyze- C:\USERS\HEESU\CLOUDSTATION\HEESU\PROGRAMMING\OCTREE\160503_OCTREE_EX1\160503_OCTREE_EX1\MESH.CPP
^C:\USERS\HEESU\CLOUDSTATION\HEESU\PROGRAMMING\OCTREE\160503_OCTREE_EX1\160503_OCTREE_EX1\OCTREE.CPP
/c /ZI /nologo /W3 /WX- /Od /Oy- /D WIN32 /D _DEBUG /D _CONSOLE /D _UNICODE /D UNICODE /Gm /EHsc /RTC1 /MDd /GS /fp:precise /Zc:wchar_t /Zc:forScope /Fo"DEBUG\\" /Fd"DEBUG\VC110.PDB" /Gd /TP /analyze- C:\USERS\HEESU\CLOUDSTATION\HEESU\PROGRAMMING\OCTREE\160503_OCTREE_EX1\160503_OCTREE_EX1\OCTREE.CPP
^C:\USERS\HEESU\CLOUDSTATION\HEESU\PROGRAMMING\OCTREE\160503_OCTREE_EX1\160503_OCTREE_EX1\OT_NODE.CPP
/c /ZI /nologo /W3 /WX- /Od /Oy- /D WIN32 /D _DEBUG /D _CONSOLE /D _UNICODE /D UNICODE /Gm /EHsc /RTC1 /MDd /GS /fp:precise /Zc:wchar_t /Zc:forScope /Fo"DEBUG\\" /Fd"DEBUG\VC110.PDB" /Gd /TP /analyze- C:\USERS\HEESU\CLOUDSTATION\HEESU\PROGRAMMING\OCTREE\160503_OCTREE_EX1\160503_OCTREE_EX1\OT_NODE.CPP
^C:\USERS\HEESU\CLOUDSTATION\HEESU\PROGRAMMING\OCTREE\160503_OCTREE_EX1\160503_OCTREE_EX1\QUEUE.CPP
/c /ZI /nologo /W3 /WX- /Od /Oy- /D WIN32 /D _DEBUG /D _CONSOLE /D _UNICODE /D UNICODE /Gm /EHsc /RTC1 /MDd /GS /fp:precise /Zc:wchar_t /Zc:forScope /Fo"DEBUG\\" /Fd"DEBUG\VC110.PDB" /Gd /TP /analyze- C:\USERS\HEESU\CLOUDSTATION\HEESU\PROGRAMMING\OCTREE\160503_OCTREE_EX1\160503_OCTREE_EX1\QUEUE.CPP
^C:\USERS\HEESU\CLOUDSTATION\HEESU\PROGRAMMING\OCTREE\160503_OCTREE_EX1\160503_OCTREE_EX1\TRIANGLE.CPP
/c /ZI /nologo /W3 /WX- /Od /Oy- /D WIN32 /D _DEBUG /D _CONSOLE /D _UNICODE /D UNICODE /Gm /EHsc /RTC1 /MDd /GS /fp:precise /Zc:wchar_t /Zc:forScope /Fo"DEBUG\\" /Fd"DEBUG\VC110.PDB" /Gd /TP /analyze- C:\USERS\HEESU\CLOUDSTATION\HEESU\PROGRAMMING\OCTREE\160503_OCTREE_EX1\160503_OCTREE_EX1\TRIANGLE.CPP
^C:\USERS\HEESU\CLOUDSTATION\HEESU\PROGRAMMING\OCTREE\160503_OCTREE_EX1\160503_OCTREE_EX1\VECTOR3.CPP
/c /ZI /nologo /W3 /WX- /Od /Oy- /D WIN32 /D _DEBUG /D _CONSOLE /D _UNICODE /D UNICODE /Gm /EHsc /RTC1 /MDd /GS /fp:precise /Zc:wchar_t /Zc:forScope /Fo"DEBUG\\" /Fd"DEBUG\VC110.PDB" /Gd /TP /analyze- C:\USERS\HEESU\CLOUDSTATION\HEESU\PROGRAMMING\OCTREE\160503_OCTREE_EX1\160503_OCTREE_EX1\VECTOR3.CPP
^C:\USERS\HEESU\CLOUDSTATION\HEESU\PROGRAMMING\OCTREE\160503_OCTREE_EX1\160503_OCTREE_EX1\VERTEX.CPP
/c /ZI /nologo /W3 /WX- /Od /Oy- /D WIN32 /D _DEBUG /D _CONSOLE /D _UNICODE /D UNICODE /Gm /EHsc /RTC1 /MDd /GS /fp:precise /Zc:wchar_t /Zc:forScope /Fo"DEBUG\\" /Fd"DEBUG\VC110.PDB" /Gd /TP /analyze- C:\USERS\HEESU\CLOUDSTATION\HEESU\PROGRAMMING\OCTREE\160503_OCTREE_EX1\160503_OCTREE_EX1\VERTEX.CPP
^C:\GIT\OCTREE\160503_OCTREE_EX1\160503_OCTREE_EX1\BOUNDINGBOX.CPP
/c /ZI /nologo /W3 /WX- /Od /Oy- /D WIN32 /D _DEBUG /D _CONSOLE /D _UNICODE /D UNICODE /Gm /EHsc /RTC1 /MDd /GS /fp:precise /Zc:wchar_t /Zc:forScope /Fo"DEBUG\\" /Fd"DEBUG\VC110.PDB" /Gd /TP /analyze- C:\GIT\OCTREE\160503_OCTREE_EX1\160503_OCTREE_EX1\BOUNDINGBOX.CPP
^C:\GIT\OCTREE\160503_OCTREE_EX1\160503_OCTREE_EX1\MAIN.CPP
/c /ZI /nologo /W3 /WX- /Od /Oy- /D WIN32 /D _DEBUG /D _CONSOLE /D _UNICODE /D UNICODE /Gm /EHsc /RTC1 /MDd /GS /fp:precise /Zc:wchar_t /Zc:forScope /Fo"DEBUG\\" /Fd"DEBUG\VC110.PDB" /Gd /TP /analyze- C:\GIT\OCTREE\160503_OCTREE_EX1\160503_OCTREE_EX1\MAIN.CPP
^C:\GIT\OCTREE\160503_OCTREE_EX1\160503_OCTREE_EX1\MESH.CPP
/c /ZI /nologo /W3 /WX- /Od /Oy- /D WIN32 /D _DEBUG /D _CONSOLE /D _UNICODE /D UNICODE /Gm /EHsc /RTC1 /MDd /GS /fp:precise /Zc:wchar_t /Zc:forScope /Fo"DEBUG\\" /Fd"DEBUG\VC110.PDB" /Gd /TP /analyze- C:\GIT\OCTREE\160503_OCTREE_EX1\160503_OCTREE_EX1\MESH.CPP
^C:\GIT\OCTREE\160503_OCTREE_EX1\160503_OCTREE_EX1\OCTREE.CPP
/c /ZI /nologo /W3 /WX- /Od /Oy- /D WIN32 /D _DEBUG /D _CONSOLE /D _UNICODE /D UNICODE /Gm /EHsc /RTC1 /MDd /GS /fp:precise /Zc:wchar_t /Zc:forScope /Fo"DEBUG\\" /Fd"DEBUG\VC110.PDB" /Gd /TP /analyze- C:\GIT\OCTREE\160503_OCTREE_EX1\160503_OCTREE_EX1\OCTREE.CPP
^C:\GIT\OCTREE\160503_OCTREE_EX1\160503_OCTREE_EX1\OT_NODE.CPP
/c /ZI /nologo /W3 /WX- /Od /Oy- /D WIN32 /D _DEBUG /D _CONSOLE /D _UNICODE /D UNICODE /Gm /EHsc /RTC1 /MDd /GS /fp:precise /Zc:wchar_t /Zc:forScope /Fo"DEBUG\\" /Fd"DEBUG\VC110.PDB" /Gd /TP /analyze- C:\GIT\OCTREE\160503_OCTREE_EX1\160503_OCTREE_EX1\OT_NODE.CPP
^C:\GIT\OCTREE\160503_OCTREE_EX1\160503_OCTREE_EX1\QUEUE.CPP
/c /ZI /nologo /W3 /WX- /Od /Oy- /D WIN32 /D _DEBUG /D _CONSOLE /D _UNICODE /D UNICODE /Gm /EHsc /RTC1 /MDd /GS /fp:precise /Zc:wchar_t /Zc:forScope /Fo"DEBUG\\" /Fd"DEBUG\VC110.PDB" /Gd /TP /analyze- C:\GIT\OCTREE\160503_OCTREE_EX1\160503_OCTREE_EX1\QUEUE.CPP
^C:\GIT\OCTREE\160503_OCTREE_EX1\160503_OCTREE_EX1\TRIANGLE.CPP
/c /ZI /nologo /W3 /WX- /Od /Oy- /D WIN32 /D _DEBUG /D _CONSOLE /D _UNICODE /D UNICODE /Gm /EHsc /RTC1 /MDd /GS /fp:precise /Zc:wchar_t /Zc:forScope /Fo"DEBUG\\" /Fd"DEBUG\VC110.PDB" /Gd /TP /analyze- C:\GIT\OCTREE\160503_OCTREE_EX1\160503_OCTREE_EX1\TRIANGLE.CPP
^C:\GIT\OCTREE\160503_OCTREE_EX1\160503_OCTREE_EX1\VECTOR3.CPP
/c /ZI /nologo /W3 /WX- /Od /Oy- /D WIN32 /D _DEBUG /D _CONSOLE /D _UNICODE /D UNICODE /Gm /EHsc /RTC1 /MDd /GS /fp:precise /Zc:wchar_t /Zc:forScope /Fo"DEBUG\\" /Fd"DEBUG\VC110.PDB" /Gd /TP /analyze- C:\GIT\OCTREE\160503_OCTREE_EX1\160503_OCTREE_EX1\VECTOR3.CPP
^C:\GIT\OCTREE\160503_OCTREE_EX1\160503_OCTREE_EX1\VERTEX.CPP
/c /ZI /nologo /W3 /WX- /Od /Oy- /D WIN32 /D _DEBUG /D _CONSOLE /D _UNICODE /D UNICODE /Gm /EHsc /RTC1 /MDd /GS /fp:precise /Zc:wchar_t /Zc:forScope /Fo"DEBUG\\" /Fd"DEBUG\VC110.PDB" /Gd /TP /analyze- C:\GIT\OCTREE\160503_OCTREE_EX1\160503_OCTREE_EX1\VERTEX.CPP
