^C:\GIT\OCTREE\160503_OCTREE_EX1\160503_OCTREE_EX1\BOUNDINGBOX.CPP|C:\GIT\OCTREE\160503_OCTREE_EX1\160503_OCTREE_EX1\MAIN.CPP|C:\GIT\OCTREE\160503_OCTREE_EX1\160503_OCTREE_EX1\MESH.CPP|C:\GIT\OCTREE\160503_OCTREE_EX1\160503_OCTREE_EX1\OCTREE.CPP|C:\GIT\OCTREE\160503_OCTREE_EX1\160503_OCTREE_EX1\OT_NODE.CPP|C:\GIT\OCTREE\160503_OCTREE_EX1\160503_OCTREE_EX1\QUEUE.CPP|C:\GIT\OCTREE\160503_OCTREE_EX1\160503_OCTREE_EX1\TRIANGLE.CPP|C:\GIT\OCTREE\160503_OCTREE_EX1\160503_OCTREE_EX1\VECTOR3.CPP|C:\GIT\OCTREE\160503_OCTREE_EX1\160503_OCTREE_EX1\VERTEX.CPP
C:\GIT\OCTREE\160503_OCTREE_EX1\160503_OCTREE_EX1\DEBUG\BOUNDINGBOX.OBJ
C:\GIT\OCTREE\160503_OCTREE_EX1\160503_OCTREE_EX1\DEBUG\MAIN.OBJ
C:\GIT\OCTREE\160503_OCTREE_EX1\160503_OCTREE_EX1\DEBUG\MESH.OBJ
C:\GIT\OCTREE\160503_OCTREE_EX1\160503_OCTREE_EX1\DEBUG\OCTREE.OBJ
C:\GIT\OCTREE\160503_OCTREE_EX1\160503_OCTREE_EX1\DEBUG\OT_NODE.OBJ
C:\GIT\OCTREE\160503_OCTREE_EX1\160503_OCTREE_EX1\DEBUG\QUEUE.OBJ
C:\GIT\OCTREE\160503_OCTREE_EX1\160503_OCTREE_EX1\DEBUG\TRIANGLE.OBJ
C:\GIT\OCTREE\160503_OCTREE_EX1\160503_OCTREE_EX1\DEBUG\VECTOR3.OBJ
C:\GIT\OCTREE\160503_OCTREE_EX1\160503_OCTREE_EX1\DEBUG\VERTEX.OBJ
^C:\GIT\OCTREE\160503_OCTREE_EX1\160503_OCTREE_EX1\BOUNDINGBOX.CPP
C:\GIT\OCTREE\160503_OCTREE_EX1\160503_OCTREE_EX1\DEBUG\VC110.PDB
^C:\GIT\OCTREE\160503_OCTREE_EX1\160503_OCTREE_EX1\MAIN.CPP
C:\GIT\OCTREE\160503_OCTREE_EX1\160503_OCTREE_EX1\DEBUG\VC110.PDB
^C:\GIT\OCTREE\160503_OCTREE_EX1\160503_OCTREE_EX1\MESH.CPP
C:\GIT\OCTREE\160503_OCTREE_EX1\160503_OCTREE_EX1\DEBUG\VC110.PDB
C:\GIT\OCTREE\160503_OCTREE_EX1\160503_OCTREE_EX1\DEBUG\MESH.OBJ
^C:\GIT\OCTREE\160503_OCTREE_EX1\160503_OCTREE_EX1\OCTREE.CPP
C:\GIT\OCTREE\160503_OCTREE_EX1\160503_OCTREE_EX1\DEBUG\VC110.PDB
^C:\GIT\OCTREE\160503_OCTREE_EX1\160503_OCTREE_EX1\OT_NODE.CPP
C:\GIT\OCTREE\160503_OCTREE_EX1\160503_OCTREE_EX1\DEBUG\VC110.PDB
C:\GIT\OCTREE\160503_OCTREE_EX1\160503_OCTREE_EX1\DEBUG\OT_NODE.OBJ
^C:\GIT\OCTREE\160503_OCTREE_EX1\160503_OCTREE_EX1\QUEUE.CPP
C:\GIT\OCTREE\160503_OCTREE_EX1\160503_OCTREE_EX1\DEBUG\VC110.PDB
^C:\GIT\OCTREE\160503_OCTREE_EX1\160503_OCTREE_EX1\TRIANGLE.CPP
C:\GIT\OCTREE\160503_OCTREE_EX1\160503_OCTREE_EX1\DEBUG\VC110.PDB
^C:\GIT\OCTREE\160503_OCTREE_EX1\160503_OCTREE_EX1\VECTOR3.CPP
C:\GIT\OCTREE\160503_OCTREE_EX1\160503_OCTREE_EX1\DEBUG\VC110.PDB
^C:\GIT\OCTREE\160503_OCTREE_EX1\160503_OCTREE_EX1\VERTEX.CPP
C:\GIT\OCTREE\160503_OCTREE_EX1\160503_OCTREE_EX1\DEBUG\VC110.PDB
