^C:\GIT\OCTREE\160503_OCTREE_EX1\160503_OCTREE_EX1\DEBUG\BOUNDINGBOX.OBJ|C:\GIT\OCTREE\160503_OCTREE_EX1\160503_OCTREE_EX1\DEBUG\MAIN.OBJ|C:\GIT\OCTREE\160503_OCTREE_EX1\160503_OCTREE_EX1\DEBUG\MESH.OBJ|C:\GIT\OCTREE\160503_OCTREE_EX1\160503_OCTREE_EX1\DEBUG\OCTREE.OBJ|C:\GIT\OCTREE\160503_OCTREE_EX1\160503_OCTREE_EX1\DEBUG\OT_NODE.OBJ|C:\GIT\OCTREE\160503_OCTREE_EX1\160503_OCTREE_EX1\DEBUG\QUEUE.OBJ|C:\GIT\OCTREE\160503_OCTREE_EX1\160503_OCTREE_EX1\DEBUG\TRIANGLE.OBJ|C:\GIT\OCTREE\160503_OCTREE_EX1\160503_OCTREE_EX1\DEBUG\VECTOR3.OBJ|C:\GIT\OCTREE\160503_OCTREE_EX1\160503_OCTREE_EX1\DEBUG\VERTEX.OBJ
C:\GIT\OCTREE\160503_OCTREE_EX1\DEBUG\160503_OCTREE_EX1.ILK
C:\GIT\OCTREE\160503_OCTREE_EX1\DEBUG\160503_OCTREE_EX1.EXE
C:\GIT\OCTREE\160503_OCTREE_EX1\DEBUG\160503_OCTREE_EX1.PDB
